{
    "prepare_queue": {
        "installed": [],
        "uninstalled": []
    },
    "config_munge": {
        "files": {}
    },
    "installed_plugins": {
        "phonegap-plugin-barcodescanner": {
            "PACKAGE_NAME": "com.ionicframework.scanner187276"
        },
        "cordova-plugin-whitelist": {
            "PACKAGE_NAME": "com.ionicframework.scanner187276"
        },
        "cordova-plugin-camera": {
            "PACKAGE_NAME": "com.ionicframework.scanner187276"
        }
    },
    "dependent_plugins": {
        "cordova-plugin-compat": {
            "PACKAGE_NAME": "com.ionicframework.scanner187276"
        }
    }
}